ensc450_system/rgb2grayscale_hier/sim/rgb2gray.vcd
$date
	Sat Mar 23 16:00:43 2019
$end
$version
	ModelSim Version 10.7a
$end
$timescale
	1ns
$end

$scope module e $end

$scope module UUT $end
$var wire 1 ! clk $end
$var wire 1 " resetn $end
$var wire 1 # r [7] $end
$var wire 1 $ r [6] $end
$var wire 1 % r [5] $end
$var wire 1 & r [4] $end
$var wire 1 ' r [3] $end
$var wire 1 ( r [2] $end
$var wire 1 ) r [1] $end
$var wire 1 * r [0] $end
$var wire 1 + b [7] $end
$var wire 1 , b [6] $end
$var wire 1 - b [5] $end
$var wire 1 . b [4] $end
$var wire 1 / b [3] $end
$var wire 1 0 b [2] $end
$var wire 1 1 b [1] $end
$var wire 1 2 b [0] $end
$var wire 1 3 g [7] $end
$var wire 1 4 g [6] $end
$var wire 1 5 g [5] $end
$var wire 1 6 g [4] $end
$var wire 1 7 g [3] $end
$var wire 1 8 g [2] $end
$var wire 1 9 g [1] $end
$var wire 1 : g [0] $end
$var wire 1 ; gray [7] $end
$var wire 1 < gray [6] $end
$var wire 1 = gray [5] $end
$var wire 1 > gray [4] $end
$var wire 1 ? gray [3] $end
$var wire 1 @ gray [2] $end
$var wire 1 A gray [1] $end
$var wire 1 B gray [0] $end
$var wire 1 C FE_OFN24_resetn $end
$var wire 1 D FE_DBTN9_r_int_3 $end
$var wire 1 E FE_DBTN8_r_int_0 $end
$var wire 1 F FE_DBTN7_b_int_5 $end
$var wire 1 G FE_DBTN6_b_int_4 $end
$var wire 1 H FE_DBTN5_b_int_7 $end
$var wire 1 I FE_DBTN4_b_int_2 $end
$var wire 1 J FE_DBTN3_b_int_6 $end
$var wire 1 K FE_DBTN2_b_int_1 $end
$var wire 1 L FE_DBTN1_g_int_3 $end
$var wire 1 M FE_DBTN0_g_int_0 $end
$var wire 1 N N4 $end
$var wire 1 O N5 $end
$var wire 1 P N6 $end
$var wire 1 Q N8 $end
$var wire 1 R N9 $end
$var wire 1 S N10 $end
$var wire 1 T N20 $end
$var wire 1 U N21 $end
$var wire 1 V N22 $end
$var wire 1 W N24 $end
$var wire 1 X N25 $end
$var wire 1 Y N26 $end
$var wire 1 Z n28 $end
$var wire 1 [ n29 $end
$var wire 1 \ n30 $end
$var wire 1 ] n31 $end
$var wire 1 ^ n32 $end
$var wire 1 _ n33 $end
$var wire 1 ` n34 $end
$var wire 1 a n35 $end
$var wire 1 b n36 $end
$var wire 1 c n37 $end
$var wire 1 d n38 $end
$var wire 1 e n39 $end
$var wire 1 f n40 $end
$var wire 1 g n41 $end
$var wire 1 h n42 $end
$var wire 1 i n43 $end
$var wire 1 j n44 $end
$var wire 1 k n45 $end
$var wire 1 l n46 $end
$var wire 1 m n47 $end
$var wire 1 n n48 $end
$var wire 1 o n49 $end
$var wire 1 p n50 $end
$var wire 1 q n51 $end
$var wire 1 r n52 $end
$var wire 1 s n53 $end
$var wire 1 t n54 $end
$var wire 1 u n55 $end
$var wire 1 v n56 $end
$var wire 1 w n57 $end
$var wire 1 x n60 $end
$var wire 1 y n68 $end
$var wire 1 z n69 $end
$var wire 1 { n70 $end
$var wire 1 | n71 $end
$var wire 1 } n72 $end
$var wire 1 ~ n73 $end
$var wire 1 !! n74 $end
$var wire 1 "! n75 $end
$var wire 1 #! n76 $end
$var wire 1 $! n78 $end
$var wire 1 %! n79 $end
$var wire 1 &! n80 $end
$var wire 1 '! n81 $end
$var wire 1 (! n82 $end
$var wire 1 )! n83 $end
$var wire 1 *! n84 $end
$var wire 1 +! n85 $end
$var wire 1 ,! n86 $end
$var wire 1 -! n87 $end
$var wire 1 .! n89 $end
$var wire 1 /! n90 $end
$var wire 1 0! n91 $end
$var wire 1 1! n92 $end
$var wire 1 2! n93 $end
$var wire 1 3! n94 $end
$var wire 1 4! n96 $end
$var wire 1 5! n97 $end
$var wire 1 6! n98 $end
$var wire 1 7! n99 $end
$var wire 1 8! n100 $end
$var wire 1 9! n101 $end
$var wire 1 :! n102 $end
$var wire 1 ;! n103 $end
$var wire 1 <! n104 $end
$var wire 1 =! n105 $end
$var wire 1 >! n106 $end
$var wire 1 ?! n107 $end
$var wire 1 @! n108 $end
$var wire 1 A! n109 $end
$var wire 1 B! n110 $end
$var wire 1 C! n111 $end
$var wire 1 D! n112 $end
$var wire 1 E! n113 $end
$var wire 1 F! n114 $end
$var wire 1 G! n115 $end
$var wire 1 H! n116 $end
$var wire 1 I! n117 $end
$var wire 1 J! n118 $end
$var wire 1 K! n119 $end
$var wire 1 L! n120 $end
$var wire 1 M! n121 $end
$var wire 1 N! n122 $end
$var wire 1 O! n123 $end
$var wire 1 P! n124 $end
$var wire 1 Q! n128 $end
$var wire 1 R! n130 $end
$var wire 1 S! n131 $end
$var wire 1 T! n132 $end
$var wire 1 U! n133 $end
$var wire 1 V! n135 $end
$var wire 1 W! n136 $end
$var wire 1 X! n138 $end
$var wire 1 Y! n139 $end
$var wire 1 Z! n140 $end
$var wire 1 [! n141 $end
$var wire 1 \! n142 $end
$var wire 1 ]! n143 $end
$var wire 1 ^! n145 $end
$var wire 1 _! n146 $end
$var wire 1 `! n148 $end
$var wire 1 a! n149 $end
$var wire 1 b! n150 $end
$var wire 1 c! n151 $end
$var wire 1 d! n152 $end
$var wire 1 e! n153 $end
$var wire 1 f! n154 $end
$var wire 1 g! n155 $end
$var wire 1 h! n156 $end
$var wire 1 i! n157 $end
$var wire 1 j! n158 $end
$var wire 1 k! n159 $end
$var wire 1 l! n160 $end
$var wire 1 m! n161 $end
$var wire 1 n! n162 $end
$var wire 1 o! n163 $end
$var wire 1 p! n164 $end
$var wire 1 q! n165 $end
$var wire 1 r! n166 $end
$var wire 1 s! n167 $end
$var wire 1 t! n168 $end
$var wire 1 u! n169 $end
$var wire 1 v! n170 $end
$var wire 1 w! n171 $end
$var wire 1 x! n172 $end
$var wire 1 y! n173 $end
$var wire 1 z! n174 $end
$var wire 1 {! n176 $end
$var wire 1 |! n177 $end
$var wire 1 }! n178 $end
$var wire 1 ~! n179 $end
$var wire 1 !" n180 $end
$var wire 1 "" n181 $end
$var wire 1 #" n182 $end
$var wire 1 $" n183 $end
$var wire 1 %" n184 $end
$var wire 1 &" n185 $end
$var wire 1 '" n186 $end
$var wire 1 (" n187 $end
$var wire 1 )" n188 $end
$var wire 1 *" n189 $end
$var wire 1 +" n190 $end
$var wire 1 ," n191 $end
$var wire 1 -" n192 $end
$var wire 1 ." n193 $end
$var wire 1 /" n195 $end
$var wire 1 0" n196 $end
$var wire 1 1" n197 $end
$var wire 1 2" n198 $end
$var wire 1 3" n199 $end
$var wire 1 4" n200 $end
$var wire 1 5" n201 $end
$var wire 1 6" n202 $end
$var wire 1 7" n203 $end
$var wire 1 8" n204 $end
$var wire 1 9" n205 $end
$var wire 1 :" n206 $end
$var wire 1 ;" n207 $end
$var wire 1 <" n208 $end
$var wire 1 =" n210 $end
$var wire 1 >" n211 $end
$var wire 1 ?" n212 $end
$var wire 1 @" n213 $end
$var wire 1 A" n214 $end
$var wire 1 B" n215 $end
$var wire 1 C" n216 $end
$var wire 1 D" n217 $end
$var wire 1 E" n218 $end
$var wire 1 F" n219 $end
$var wire 1 G" n220 $end
$var wire 1 H" n221 $end
$var wire 1 I" n222 $end
$var wire 1 J" n223 $end
$var wire 1 K" n227 $end
$var wire 1 L" n229 $end
$var wire 1 M" n230 $end
$var wire 1 N" n231 $end
$var wire 1 O" n232 $end
$var wire 1 P" n234 $end
$var wire 1 Q" n235 $end
$var wire 1 R" n237 $end
$var wire 1 S" n238 $end
$var wire 1 T" n239 $end
$var wire 1 U" n240 $end
$var wire 1 V" n241 $end
$var wire 1 W" n242 $end
$var wire 1 X" n244 $end
$var wire 1 Y" n245 $end
$var wire 1 Z" n247 $end
$var wire 1 [" n248 $end
$var wire 1 \" n249 $end
$var wire 1 ]" n250 $end
$var wire 1 ^" n251 $end
$var wire 1 _" n252 $end
$var wire 1 `" n253 $end
$var wire 1 a" n254 $end
$var wire 1 b" n255 $end
$var wire 1 c" n256 $end
$var wire 1 d" n257 $end
$var wire 1 e" n258 $end
$var wire 1 f" n259 $end
$var wire 1 g" n260 $end
$var wire 1 h" n261 $end
$var wire 1 i" n262 $end
$var wire 1 j" n263 $end
$var wire 1 k" n264 $end
$var wire 1 l" n265 $end
$var wire 1 m" n266 $end
$var wire 1 n" r_int [7] $end
$var wire 1 o" r_int [6] $end
$var wire 1 p" r_int [5] $end
$var wire 1 q" r_int [4] $end
$var wire 1 r" r_int [3] $end
$var wire 1 s" r_int [2] $end
$var wire 1 t" r_int [1] $end
$var wire 1 u" r_int [0] $end
$var wire 1 v" b_int [7] $end
$var wire 1 w" b_int [6] $end
$var wire 1 x" b_int [5] $end
$var wire 1 y" b_int [4] $end
$var wire 1 z" b_int [3] $end
$var wire 1 {" b_int [2] $end
$var wire 1 |" b_int [1] $end
$var wire 1 }" b_int [0] $end
$var wire 1 ~" g_int [7] $end
$var wire 1 !# g_int [6] $end
$var wire 1 "# g_int [5] $end
$var wire 1 ## g_int [4] $end
$var wire 1 $# g_int [3] $end
$var wire 1 %# g_int [2] $end
$var wire 1 &# g_int [1] $end
$var wire 1 '# g_int [0] $end
$var wire 1 (# max [7] $end
$var wire 1 )# max [6] $end
$var wire 1 *# max [5] $end
$var wire 1 +# max [4] $end
$var wire 1 ,# max [3] $end
$var wire 1 -# max [2] $end
$var wire 1 .# max [1] $end
$var wire 1 /# max [0] $end
$var wire 1 0# min [7] $end
$var wire 1 1# min [6] $end
$var wire 1 2# min [5] $end
$var wire 1 3# min [4] $end
$var wire 1 4# min [3] $end
$var wire 1 5# min [2] $end
$var wire 1 6# min [1] $end
$var wire 1 7# min [0] $end
$var wire 1 8# sum [8] $end
$var wire 1 9# sum [7] $end
$var wire 1 :# sum [6] $end
$var wire 1 ;# sum [5] $end
$var wire 1 <# sum [4] $end
$var wire 1 =# sum [3] $end
$var wire 1 ># sum [2] $end
$var wire 1 ?# sum [1] $end

$scope module r_int_reg[7] $end
$var wire 1 # D $end
$var wire 1 C RN $end
$var wire 1 ! CK $end
$var wire 1 n" Q $end
$var wire 1 _ QN $end
$var reg 1 @# NOTIFIER $end
$upscope $end

$scope module r_int_reg[6] $end
$var wire 1 $ D $end
$var wire 1 C RN $end
$var wire 1 ! CK $end
$var wire 1 o" Q $end
$var wire 1 b QN $end
$var reg 1 A# NOTIFIER $end
$upscope $end

$scope module r_int_reg[5] $end
$var wire 1 % D $end
$var wire 1 C RN $end
$var wire 1 ! CK $end
$var wire 1 p" Q $end
$var wire 1 e QN $end
$var reg 1 B# NOTIFIER $end
$upscope $end

$scope module r_int_reg[4] $end
$var wire 1 & D $end
$var wire 1 C RN $end
$var wire 1 ! CK $end
$var wire 1 q" Q $end
$var wire 1 h QN $end
$var reg 1 C# NOTIFIER $end
$upscope $end

$scope module r_int_reg[3] $end
$var wire 1 ' D $end
$var wire 1 C RN $end
$var wire 1 ! CK $end
$var wire 1 r" Q $end
$var wire 1 k QN $end
$var reg 1 D# NOTIFIER $end
$upscope $end

$scope module r_int_reg[2] $end
$var wire 1 ( D $end
$var wire 1 C RN $end
$var wire 1 ! CK $end
$var wire 1 s" Q $end
$var wire 1 n QN $end
$var reg 1 E# NOTIFIER $end
$upscope $end

$scope module r_int_reg[0] $end
$var wire 1 * D $end
$var wire 1 C RN $end
$var wire 1 ! CK $end
$var wire 1 u" Q $end
$var wire 1 t QN $end
$var reg 1 F# NOTIFIER $end
$upscope $end

$scope module b_int_reg[7] $end
$var wire 1 + D $end
$var wire 1 C RN $end
$var wire 1 ! CK $end
$var wire 1 v" Q $end
$var wire 1 ] QN $end
$var reg 1 G# NOTIFIER $end
$upscope $end

$scope module b_int_reg[6] $end
$var wire 1 , D $end
$var wire 1 C RN $end
$var wire 1 ! CK $end
$var wire 1 w" Q $end
$var wire 1 a QN $end
$var reg 1 H# NOTIFIER $end
$upscope $end

$scope module b_int_reg[5] $end
$var wire 1 - D $end
$var wire 1 C RN $end
$var wire 1 ! CK $end
$var wire 1 x" Q $end
$var wire 1 d QN $end
$var reg 1 I# NOTIFIER $end
$upscope $end

$scope module b_int_reg[4] $end
$var wire 1 . D $end
$var wire 1 C RN $end
$var wire 1 ! CK $end
$var wire 1 y" Q $end
$var wire 1 g QN $end
$var reg 1 J# NOTIFIER $end
$upscope $end

$scope module b_int_reg[3] $end
$var wire 1 / D $end
$var wire 1 C RN $end
$var wire 1 ! CK $end
$var wire 1 z" Q $end
$var wire 1 j QN $end
$var reg 1 K# NOTIFIER $end
$upscope $end

$scope module b_int_reg[2] $end
$var wire 1 0 D $end
$var wire 1 C RN $end
$var wire 1 ! CK $end
$var wire 1 {" Q $end
$var wire 1 m QN $end
$var reg 1 L# NOTIFIER $end
$upscope $end

$scope module b_int_reg[1] $end
$var wire 1 1 D $end
$var wire 1 C RN $end
$var wire 1 ! CK $end
$var wire 1 |" Q $end
$var wire 1 p QN $end
$var reg 1 M# NOTIFIER $end
$upscope $end

$scope module b_int_reg[0] $end
$var wire 1 2 D $end
$var wire 1 C RN $end
$var wire 1 ! CK $end
$var wire 1 }" Q $end
$var wire 1 s QN $end
$var reg 1 N# NOTIFIER $end
$upscope $end

$scope module g_int_reg[7] $end
$var wire 1 3 D $end
$var wire 1 C RN $end
$var wire 1 ! CK $end
$var wire 1 ~" Q $end
$var wire 1 [ QN $end
$var reg 1 O# NOTIFIER $end
$upscope $end

$scope module g_int_reg[6] $end
$var wire 1 4 D $end
$var wire 1 C RN $end
$var wire 1 ! CK $end
$var wire 1 !# Q $end
$var wire 1 ` QN $end
$var reg 1 P# NOTIFIER $end
$upscope $end

$scope module g_int_reg[5] $end
$var wire 1 5 D $end
$var wire 1 C RN $end
$var wire 1 ! CK $end
$var wire 1 "# Q $end
$var wire 1 c QN $end
$var reg 1 Q# NOTIFIER $end
$upscope $end

$scope module g_int_reg[4] $end
$var wire 1 6 D $end
$var wire 1 C RN $end
$var wire 1 ! CK $end
$var wire 1 ## Q $end
$var wire 1 f QN $end
$var reg 1 R# NOTIFIER $end
$upscope $end

$scope module g_int_reg[3] $end
$var wire 1 7 D $end
$var wire 1 C RN $end
$var wire 1 ! CK $end
$var wire 1 $# Q $end
$var wire 1 i QN $end
$var reg 1 S# NOTIFIER $end
$upscope $end

$scope module g_int_reg[2] $end
$var wire 1 8 D $end
$var wire 1 C RN $end
$var wire 1 ! CK $end
$var wire 1 %# Q $end
$var wire 1 l QN $end
$var reg 1 T# NOTIFIER $end
$upscope $end

$scope module g_int_reg[1] $end
$var wire 1 9 D $end
$var wire 1 C RN $end
$var wire 1 ! CK $end
$var wire 1 &# Q $end
$var wire 1 o QN $end
$var reg 1 U# NOTIFIER $end
$upscope $end

$scope module g_int_reg[0] $end
$var wire 1 : D $end
$var wire 1 C RN $end
$var wire 1 ! CK $end
$var wire 1 '# Q $end
$var wire 1 r QN $end
$var reg 1 V# NOTIFIER $end
$upscope $end

$scope module gray_reg[0] $end
$var wire 1 ?# D $end
$var wire 1 C RN $end
$var wire 1 ! CK $end
$var wire 1 B Q $end
$var wire 1 W# QN $end
$var reg 1 X# NOTIFIER $end
$upscope $end

$scope module gray_reg[1] $end
$var wire 1 ># D $end
$var wire 1 C RN $end
$var wire 1 ! CK $end
$var wire 1 A Q $end
$var wire 1 Y# QN $end
$var reg 1 Z# NOTIFIER $end
$upscope $end

$scope module gray_reg[2] $end
$var wire 1 =# D $end
$var wire 1 C RN $end
$var wire 1 ! CK $end
$var wire 1 @ Q $end
$var wire 1 [# QN $end
$var reg 1 \# NOTIFIER $end
$upscope $end

$scope module gray_reg[3] $end
$var wire 1 <# D $end
$var wire 1 C RN $end
$var wire 1 ! CK $end
$var wire 1 ? Q $end
$var wire 1 ]# QN $end
$var reg 1 ^# NOTIFIER $end
$upscope $end

$scope module gray_reg[4] $end
$var wire 1 ;# D $end
$var wire 1 C RN $end
$var wire 1 ! CK $end
$var wire 1 > Q $end
$var wire 1 _# QN $end
$var reg 1 `# NOTIFIER $end
$upscope $end

$scope module gray_reg[5] $end
$var wire 1 :# D $end
$var wire 1 C RN $end
$var wire 1 ! CK $end
$var wire 1 = Q $end
$var wire 1 a# QN $end
$var reg 1 b# NOTIFIER $end
$upscope $end

$scope module gray_reg[6] $end
$var wire 1 9# D $end
$var wire 1 C RN $end
$var wire 1 ! CK $end
$var wire 1 < Q $end
$var wire 1 c# QN $end
$var reg 1 d# NOTIFIER $end
$upscope $end

$scope module gray_reg[7] $end
$var wire 1 8# D $end
$var wire 1 C RN $end
$var wire 1 ! CK $end
$var wire 1 ; Q $end
$var wire 1 e# QN $end
$var reg 1 f# NOTIFIER $end
$upscope $end

$scope module add_66 $end
$var wire 1 g# FE_OCPN50_min_3 $end
$var wire 1 h# n1 $end
$var wire 1 i# n2 $end
$var wire 1 j# n3 $end
$var wire 1 k# n4 $end
$var wire 1 l# n5 $end
$var wire 1 m# n6 $end
$var wire 1 n# n7 $end
$var wire 1 o# n8 $end
$var wire 1 p# n10 $end
$var wire 1 q# n11 $end
$var wire 1 r# n12 $end
$var wire 1 s# n13 $end
$var wire 1 t# n14 $end
$var wire 1 u# n15 $end
$var wire 1 v# n16 $end
$var wire 1 w# n17 $end
$var wire 1 x# n18 $end
$var wire 1 y# n20 $end
$var wire 1 z# n21 $end
$var wire 1 {# n22 $end
$var wire 1 |# n23 $end
$var wire 1 }# n24 $end
$var wire 1 ~# n25 $end
$var wire 1 !$ n26 $end
$var wire 1 "$ n27 $end
$var wire 1 #$ n28 $end
$var wire 1 $$ n29 $end
$var wire 1 %$ n30 $end
$var wire 1 &$ n31 $end
$var wire 1 '$ n32 $end
$var wire 1 ($ n34 $end
$var wire 1 )$ n35 $end
$var wire 1 *$ n36 $end
$var wire 1 +$ n37 $end
$var wire 1 ,$ n38 $end
$var wire 1 -$ n39 $end
$var wire 1 .$ n40 $end
$var wire 1 /$ n41 $end
$var wire 1 0$ n42 $end
$var wire 1 1$ n43 $end
$var wire 1 2$ n44 $end
$var wire 1 3$ n45 $end
$var wire 1 4$ n46 $end
$var wire 1 5$ n47 $end
$var wire 1 6$ n48 $end
$var wire 1 7$ n49 $end
$var wire 1 8$ n50 $end
$var wire 1 9$ n51 $end
$var wire 1 :$ n52 $end
$upscope $end

$scope module r_int_reg[1] $end
$var wire 1 ) D $end
$var wire 1 C RN $end
$var wire 1 ! CK $end
$var wire 1 t" Q $end
$var wire 1 q QN $end
$var reg 1 ;$ NOTIFIER $end
$upscope $end
$upscope $end
$upscope $end
$enddefinitions $end
#20
$dumpvars
x@#
xA#
xB#
xC#
xD#
xE#
xF#
xG#
xH#
xI#
xJ#
xK#
xL#
xM#
xN#
xO#
xP#
xQ#
xR#
xS#
xT#
xU#
xV#
xX#
xZ#
x\#
x^#
x`#
xb#
xd#
xf#
x;$
0!
1"
0*
0)
0(
0'
0&
0%
0$
0#
02
01
00
0/
0.
0-
0,
0+
0:
09
08
07
06
05
04
03
xB
xA
x@
x?
x>
x=
x<
x;
xW#
xY#
x[#
x]#
x_#
xa#
xc#
xe#
1C
1D
1E
1F
1G
1H
1I
1J
1K
1L
1M
1N
1O
1P
1Q
1R
1S
1T
1U
1V
1W
1X
1Y
1Z
1[
1\
1]
0^
1_
1`
1a
1b
1c
1d
1e
1f
1g
1h
1i
1j
1k
1l
1m
1n
1o
1p
1q
1r
1s
1t
1u
1v
0w
1x
1y
0z
0{
1|
1}
1~
1!!
0"!
1#!
1$!
1%!
1&!
1'!
1(!
1)!
1*!
1+!
0,!
0-!
1.!
0/!
00!
01!
02!
03!
14!
05!
16!
17!
18!
19!
0:!
0;!
1<!
1=!
0>!
1?!
1@!
1A!
1B!
0C!
1D!
0E!
0F!
0G!
1H!
0I!
0J!
0K!
1L!
1M!
1N!
1O!
0P!
1Q!
1R!
1S!
1T!
1U!
0V!
0W!
1X!
0Y!
0Z!
0[!
0\!
0]!
1^!
0_!
1`!
1a!
1b!
0c!
0d!
1e!
1f!
0g!
1h!
1i!
1j!
1k!
0l!
1m!
0n!
0o!
0p!
1q!
0r!
0s!
0t!
1u!
1v!
1w!
1x!
0y!
1z!
1{!
1|!
1}!
1~!
1!"
1""
1#"
1$"
1%"
0&"
0'"
1("
1)"
0*"
0+"
0,"
0-"
0."
1/"
00"
11"
12"
13"
14"
05"
06"
17"
18"
09"
1:"
1;"
1<"
0="
1>"
0?"
0@"
0A"
1B"
0C"
0D"
0E"
1F"
1G"
1H"
1I"
0J"
1K"
1L"
1M"
1N"
1O"
0P"
0Q"
1R"
0S"
0T"
0U"
0V"
0W"
1X"
0Y"
1Z"
1["
1\"
0]"
0^"
1_"
1`"
0a"
1b"
1c"
1d"
1e"
0f"
1g"
0h"
0i"
0j"
1k"
0l"
0m"
0u"
0t"
0s"
0r"
0q"
0p"
0o"
0n"
0}"
0|"
0{"
0z"
0y"
0x"
0w"
0v"
0'#
0&#
0%#
0$#
0##
0"#
0!#
0~"
0/#
0.#
0-#
0,#
0+#
0*#
0)#
0(#
07#
06#
05#
04#
03#
02#
01#
00#
0?#
0>#
0=#
0<#
0;#
0:#
09#
08#
0g#
1h#
1i#
1j#
1k#
1l#
1m#
1n#
1o#
1p#
1q#
0r#
0s#
1t#
1u#
0v#
1w#
1x#
0y#
1z#
1{#
0|#
1}#
1~#
0!$
0"$
1#$
1$$
0%$
1&$
1'$
0($
0)$
1*$
1+$
0,$
1-$
1.$
1/$
00$
11$
12$
13$
04$
05$
06$
07$
08$
09$
0:$
$end
#30
1!
1e#
1c#
1a#
1_#
1]#
1[#
1Y#
1W#
0;
0<
0=
0>
0?
0@
0A
0B
#40
0!
#45
1&
1(
1*
15
19
1:
1,
10
12
#50
1!
0r
0o
0c
0s
0m
0a
0t
0n
0h
1q"
1s"
1u"
1w"
1{"
1}"
1"#
1&#
1'#
1/#
17#
15#
1-#
13#
1+#
0{!
0m!
0D!
0$"
0a!
08!
0v!
0E
0J
0I
0G"
0M!
0k"
0B"
0#!
0\"
04"
0w!
06!
0|
0H"
0}
0M
03$
0-$
0.$
0&$
0'$
0)"
1r!
1V!
0f!
1I!
1,!
0=!
1|
0/"
1g!
1>!
1t!
1M!
1}
1U"
1i"
1[!
1o!
0X"
1a!
1E"
1K!
1l"
1T"
1P"
0K"
0I"
1C"
1+"
1&"
0|!
0x!
1C!
1a"
19"
1:!
1"!
1{
1G"
1v!
1?#
19$
1,$
17$
1%$
08"
0U
0T
0"!
15"
0u!
0K!
0{
0R
0l"
0b"
0O
0r!
0h!
1]"
0g!
0F"
0X
0W
1E!
0<!
0)!
0d"
0<"
0*!
0E"
0t!
1=#
1;#
1<"
0V
1*!
09"
1y!
0S
1X
1d"
0P
1U
0a"
1J"
0Y
0I!
13!
1m"
1D"
1F"
1u!
0D"
1^
0m"
1w
0v
0\
1T
0N
0X
0J"
0y!
03#
1X
0+#
1)#
11#
1V
1'$
1&$
0z#
0{#
1\
0^
0%$
0l#
07$
15$
1y#
01#
13#
0;#
1<#
1l#
0x#
1{#
0&$
0<#
1v#
0y#
0j#
17$
19#
1x#
1:#
0l#
0v#
1<#
09#
#60
0!
#65
1$
0*
05
16
0:
0,
1-
1.
00
11
02
#70
1!
0a#
0]#
0[#
0W#
1r
0f
1c
1s
0p
1m
0g
0d
1a
1t
0b
1o"
0u"
0w"
1x"
1y"
0{"
1|"
0}"
0"#
1##
0'#
0/#
1.#
0-#
1+#
1*#
0)#
07#
11#
0("
0[!
0o!
0B!
10"
1E
1J
0F
0G
1I
0F"
0K
1_!
1Y"
1k"
1B"
1#!
0g"
1)"
0$!
15!
1M
1=
1?
1@
1B
13$
01$
1.$
0'$
0#$
1,"
1@"
1O
1r!
1h!
1J!
1/!
1F!
0_!
05!
0U"
0i"
0k!
1f"
1l!
1g"
1m!
1X"
0a!
1J"
0T"
1K"
0C"
0+"
0&"
1|!
0C!
0`"
1F"
18"
1D!
0:!
00"
0Y"
0?#
1:$
0,$
0n#
1%$
1l#
16$
1"$
1!$
0Q
0:"
0U
0T
0?!
1c!
1:!
1R
1b"
1s!
1Y!
1o!
1h"
0_"
1n!
0e!
0T!
0P"
1`"
0F"
0r!
0V!
1f!
1g!
1W
1-"
0E!
1<!
1)!
0J"
0,!
1=!
0o#
0=#
1>#
1;#
0<#
0k#
0x#
0~#
0w#
0}#
0V
0N"
0h!
1]!
1J"
1Y
03!
1?#
0;#
1v#
1|#
1^
1W"
1T!
0O
1N
19#
0:#
0Z
03#
05#
01#
0R
0]!
16#
13#
1'$
1-$
1z#
1O
02$
0'$
0%$
0"$
0l#
09$
05$
1P
10$
1o#
1%$
1"$
1l#
1;#
1x#
1~#
1<#
1n#
1w#
1j#
0w
1v
0/$
0?#
0;#
0~#
0<#
0v#
0|#
0>#
1:#
1-#
1)#
0.#
0*#
1>#
1|#
09#
0:#
0-$
0z#
12$
1#$
1:#
19$
1,$
15$
00$
0o#
06$
0"$
0!$
0n#
1=#
0j#
1/$
1?#
1k#
1~#
1}#
0:#
0,$
1;#
0|#
0=#
1:#
#80
0!
#85
0.
#90
1!
0_#
1]#
1[#
0Y#
1g
0y"
1G
1>
0?
0@
1A
0g"
0m!
1P"
0`"
1F"
1V!
0f!
0J"
#100
0!
#105
0&
0(
13
06
0-
1.
#110
1!
1f
0[
0g
1d
1n
1h
0q"
0s"
0x"
1y"
1~"
0##
03#
10#
0-#
0+#
1{!
1m!
0.!
1$"
1a!
18!
1F
0G
0c"
0;"
0&!
1g"
0)"
1$!
1'$
0t#
1-$
1&$
1)"
0V!
1f!
0=!
1/"
0g!
0L!
0>!
0|
0f"
0l!
0R"
0X!
1m"
1T"
1Q"
0K"
1D"
1+"
1'"
0|!
1G!
0P"
1`"
0F"
08"
1.!
0%$
0l#
14$
1r#
09$
07$
18"
05"
0-"
1P!
1"!
0h"
1_"
1N"
0n!
1e!
0`"
0f!
0X
0W
0,"
1E!
0J!
0<!
0'!
1J"
1=!
0;#
1<#
0i#
1n#
1l#
19"
0W"
0Y
1Q
1T
13!
19#
0>#
0<#
1R
1Z
0\
0N
1S
00#
13#
0P
1t#
0&$
1w
04$
0r#
17$
0u
0)#
1i#
0l#
1.#
1(#
1z#
09#
1<#
02$
0t#
05$
10$
1o#
14$
1j#
0/$
0?#
0i#
0:#
1>#
19#
#120
0!
#125
1&
1(
1*
03
15
0.
01
12
#130
1!
0c#
1a#
1_#
0]#
1W#
0c
1[
0s
1p
1g
0t
0n
0h
1q"
1s"
1u"
0y"
0|"
1}"
0~"
1"#
1*#
0(#
17#
06#
03#
0{!
1X!
0D!
0$"
0a!
08!
0v!
0E
1G
1F"
1L!
1K
0G"
0M!
1c"
1;"
1&!
0k"
0B"
0#!
1<
0=
0>
1?
0B
0#$
1t#
12$
1&$
0)"
1f!
1,!
0=!
1|
0/"
1g!
1>!
1t!
1M!
15!
1R"
0m!
0J"
0P!
0]"
0c!
1E"
1K!
0m"
0Q"
0D"
0'"
0G!
1l"
1P"
1&"
1C!
16$
04$
00$
0o#
07$
08"
0"!
15"
0u!
0K!
0:!
1`"
1V!
0f!
1a"
0F"
1W
1,"
1J!
1'!
0k#
1i#
1/$
1?#
1l#
09"
1y!
0d"
1J"
0Q
0T
03!
1;#
09#
0>#
0<#
1m"
0S
1N
1u
0v
1P
0.#
0*#
1/#
0w
1v
11$
1#$
03$
1-#
1+#
1)#
0:$
06$
0?#
0-$
0&$
0z#
1o#
1k#
19$
17$
15$
1?#
0;#
0n#
0l#
0j#
1>#
1<#
1:#
#140
0!
#145
0$
0(
1)
0*
17
09
1-
1.
10
11
02
#150
1!
0q
1c#
0a#
0W#
1o
0i
1s
0p
0m
0g
0d
1t
1n
1b
0o"
0s"
0u"
1x"
1y"
1{"
1|"
0}"
1$#
0&#
1t"
1.#
07#
16#
15#
13#
12#
0/#
0-#
0)#
1("
1k!
1B!
1$"
1a!
18!
1v!
1E
0F
0G
0I
0K
1G"
1_!
1;!
0L
1\"
14"
1w!
16!
1H"
01"
0~
09!
0N!
0b!
0<
1=
1B
01$
13$
02$
0'$
0#$
1z#
0,"
0@"
0s!
0Y!
0o!
0J!
0/!
0F!
1/"
0t!
0_!
05!
1k"
1l!
0R"
1m!
0X"
0^!
1]"
0E"
0Z"
02"
0a"
0!!
0O!
1:$
10$
0?#
1%$
1l#
16$
1"$
1!$
05$
1Q
1C"
1:"
1U
1h!
1T
1?!
1c!
0l"
0T"
1K"
1I"
1n!
0e!
0`"
0V!
1f!
0L!
1a"
19"
1d"
0/$
1;#
0<#
0k#
0~#
0}#
1j#
1S
0W
0T!
1V
0)!
0g!
1U"
1\!
1P!
0m"
1,$
0>#
0;#
1|#
0:#
1]!
1\
0^
13!
0R
0O
1X
1=#
1:#
05#
02#
0N
0S
0P
1-$
1#$
1w
0v
09$
0,$
06$
0"$
0!$
1-#
1*#
1n#
0=#
1k#
1~#
1}#
0-$
0#$
1>#
1;#
0|#
19$
1,$
16$
1"$
1!$
0:#
0n#
1=#
0k#
0~#
0}#
0>#
0;#
1|#
1:#
#160
0!
#170
1!
1]#
0[#
1Y#
1W#
0?
1@
0A
0B
